<?xml version="1.0" encoding="utf-8"?>
<!-- Generator: Adobe Illustrator 23.0.0, SVG Export Plug-In . SVG Version: 6.00 Build 0)  -->
<svg version="1.1" id="Layer_1" xmlns="http://www.w3.org/2000/svg" xmlns:xlink="http://www.w3.org/1999/xlink" x="0px" y="0px"
	 viewBox="0 0 300 300" style="enable-background:new 0 0 300 300;" xml:space="preserve">
<style type="text/css">
	.st0{fill:url(#SVGID_1_);}
	.st1{fill:#1A1A1A;}
	.st2{fill:#EBA966;}
	.st3{fill:#FFC2B0;}
	.st4{opacity:0.41;fill:#EB7D7A;}
	.st5{fill:#FFB09E;}
	.st6{clip-path:url(#SVGID_2_);}
	.st7{fill:#222A46;}
	.st8{fill:#EB7D7A;}
</style>
<g>
	<linearGradient id="SVGID_1_" gradientUnits="userSpaceOnUse" x1="21.039" y1="273.434" x2="200.7923" y2="93.6807">
		<stop  offset="1.248265e-07" style="stop-color:#8C6239"/>
		<stop  offset="0.1068" style="stop-color:#6D4E31"/>
		<stop  offset="0.2353" style="stop-color:#4F3B28"/>
		<stop  offset="0.3713" style="stop-color:#382D22"/>
		<stop  offset="0.5163" style="stop-color:#27221E"/>
		<stop  offset="0.6761" style="stop-color:#1D1C1B"/>
		<stop  offset="0.8801" style="stop-color:#1A1A1A"/>
	</linearGradient>
	<path class="st0" d="M132.93,64.82c-8.23,15.61-27.17,21.35-43.74,27.43c-16.57,6.07-34.78,16.99-36.05,34.59
		c-0.8,11.07,5.65,21.76,4.56,32.81c-2.27,22.8-32.03,30.46-45.83,48.75c-9.93,13.16-10.62,31.96-3.78,46.97
		c6.84,15,20.33,26.32,35.45,32.89c31.21,13.56,69.12,7.37,96.86-12.34c27.73-19.71,45.58-51.53,52.08-84.93
		c6.5-33.4,2.34-68.25-7.75-100.75c-3.75-12.07-9.04-24.79-19.93-31.21c-10.89-6.41-28.44-1.97-30.42,10.52"/>
	<ellipse class="st1" cx="198.71" cy="96.21" rx="72.96" ry="79.6"/>
	<path class="st2" d="M209.43,245.69c0,0-68.22-21.34-100.74,54.42H296C296,300.11,282.54,230.23,209.43,245.69z"/>
	<path class="st3" d="M238.65,156.48L175,167.28l-0.59,77.75c0,0,3.65,20.14,36.56,20.7c31.06,0.53,33.13-21.63,33.13-21.63
		L238.65,156.48z"/>
	<path class="st4" d="M174.83,223.46c0,0,40.51,3.39,65.57-29.54l-1.58-25.44l-63.65,10.8L174.83,223.46z"/>
	<g>
		<g>
			<g>
				<path class="st3" d="M282.86,132.91c0,6.18-7.52,14.94-16.16,12.42c-5.94-1.73-13.54-6.24-13.54-12.42
					c0-6.18,8.66-12.4,14.85-12.4C277.99,120.51,282.86,126.73,282.86,132.91z"/>
				<g>
					<path class="st5" d="M271.66,137.5c0.2-1.3,0.57-2.56,1.06-3.78c0.51-1.21,1.08-2.45,2.27-3.36c0.31-0.21,0.71-0.37,1.13-0.37
						c0.42,0,0.84,0.16,1.13,0.39c0.31,0.23,0.54,0.51,0.75,0.78c0.26,0.37,0.29,0.75,0.33,1.1c0.06,1.38-0.21,2.65-0.59,3.91
						c0.02-0.65,0.07-1.3,0.06-1.95c0.02-0.64,0.01-1.29-0.1-1.89c-0.06-0.29-0.14-0.58-0.27-0.73c-0.19-0.23-0.4-0.44-0.62-0.58
						c-0.44-0.32-0.9-0.29-1.35,0.02c-0.92,0.65-1.55,1.84-2.16,2.94C272.71,135.12,272.19,136.3,271.66,137.5z"/>
				</g>
			</g>
			<g>
				<path class="st3" d="M135.09,132.91c0,6.18,7.52,14.94,16.16,12.42c5.94-1.73,13.54-6.24,13.54-12.42
					c0-6.18-8.66-12.4-14.85-12.4C139.96,120.51,135.09,126.73,135.09,132.91z"/>
				<g>
					<path class="st5" d="M146.29,137.5c-0.53-1.19-1.04-2.38-1.64-3.52c-0.6-1.1-1.24-2.29-2.16-2.94
						c-0.45-0.31-0.91-0.34-1.35-0.02c-0.23,0.14-0.43,0.36-0.62,0.58c-0.13,0.15-0.21,0.44-0.27,0.73c-0.1,0.6-0.11,1.25-0.1,1.89
						c-0.01,0.65,0.04,1.29,0.06,1.95c-0.38-1.26-0.65-2.54-0.59-3.91c0.03-0.34,0.06-0.72,0.33-1.1c0.21-0.28,0.44-0.56,0.75-0.78
						c0.29-0.24,0.71-0.4,1.13-0.39c0.42,0,0.82,0.16,1.13,0.37c1.2,0.91,1.76,2.15,2.27,3.36
						C145.72,134.94,146.09,136.2,146.29,137.5z"/>
				</g>
			</g>
			<g>
				<path class="st3" d="M267.97,116.8c1.1,43.19-19.34,84.46-54.84,85.37c-35.5,0.91-61.15-35.96-62.25-79.14
					c-1.1-43.19,22.75-76.34,58.25-77.25C244.63,44.88,266.87,73.62,267.97,116.8z"/>
				<g>
					<defs>
						<path id="SVGID_3_" d="M267.97,116.8c1.1,43.19-19.34,84.46-54.84,85.37c-35.5,0.91-61.15-35.96-62.25-79.14
							c-1.1-43.19,22.75-76.34,58.25-77.25C244.63,44.88,266.87,73.62,267.97,116.8z"/>
					</defs>
					<clipPath id="SVGID_2_">
						<use xlink:href="#SVGID_3_"  style="overflow:visible;"/>
					</clipPath>
					<g class="st6">
						<circle class="st5" cx="162.01" cy="156.76" r="25.71"/>
						<circle class="st5" cx="256.84" cy="156.76" r="25.71"/>
					</g>
				</g>
			</g>
		</g>
		<g>
			<g>
				<g>
					<path class="st7" d="M189.09,118.99c-0.06,2.39-1.54,4.29-3.31,4.25c-1.77-0.04-3.16-2.02-3.1-4.41
						c0.06-2.39,1.54-4.29,3.31-4.25C187.76,114.63,189.15,116.6,189.09,118.99z"/>
				</g>
				<g>
					
						<ellipse transform="matrix(0.0244 -0.9997 0.9997 0.0244 107.5372 348.023)" class="st7" cx="232.07" cy="118.92" rx="4.33" ry="3.21"/>
				</g>
			</g>
			<g>
				<g>
					<path class="st8" d="M195.59,141.61c1.85,2.79,3.98,5.36,6.49,7.42c2.49,2.03,5.49,3.47,8.6,3.39c3.12,0,6.1-1.45,8.74-3.32
						c2.64-1.91,4.98-4.29,7.28-6.73c-1.74,2.87-3.84,5.57-6.46,7.78c-1.32,1.1-2.77,2.07-4.37,2.8c-1.61,0.7-3.37,1.14-5.17,1.17
						c-1.79,0.01-3.59-0.4-5.19-1.14c-1.6-0.75-3.05-1.77-4.29-2.96C198.71,147.65,196.82,144.74,195.59,141.61z"/>
				</g>
				<g>
					<path class="st8" d="M207.22,133.83c1.1-1.04,2.28-1.95,3.49-2.82c1.2-0.87,2.45-1.67,3.72-2.46l-0.03,1.51
						c-0.97-0.72-1.75-1.6-2.36-2.54c-0.61-0.95-1.12-1.93-1.52-2.96c-0.41-1.01-0.72-2.06-0.98-3.11c-0.24-1.06-0.43-2.12-0.5-3.19
						c0.81,1.99,1.66,3.92,2.66,5.74c1.01,1.78,2.18,3.53,3.72,4.58l1.12,0.76l-1.15,0.75c-1.25,0.81-2.5,1.6-3.81,2.31
						c-1.3,0.72-2.63,1.4-4.04,1.95c-0.16,0.06-0.34-0.02-0.4-0.18C207.09,134.05,207.13,133.91,207.22,133.83z"/>
				</g>
			</g>
		</g>
	</g>
	<path class="st1" d="M240.4,36.68c-12.85-10.45-36.28-6.02-36.28-6.02c-21.36,2.58-40.82,14.95-50.54,34.14
		c-14.97,29.53-2.22,60.62-2.22,60.62c34.28-12.42,55.79-50.4,64.88-69.93c4.05,19.61,16.39,46.21,51.78,65.02
		C268.01,120.51,278.06,67.31,240.4,36.68z"/>
</g>
</svg>
